…
get_user_info <- function(user_data, user_id){
  
  user_info <- user_data %>% 
    filter(userId == user_id) %>% 
    select(movieId, rating) 
  
  return(user_info)
  
}

# test the function
get_user_info(user_tbl,1) 
```

    ## # A tibble: 232 x 2
    ##    movieId rating
    ##      <int>  <dbl>
    ##  1       1      4
    ##  2       3      4
    ##  3       6      4
    ##  4      47      5
    ##  5      50      5
    ##  6      70      3
    ##  7     101      5
    ##  8     110      4
    ##  9     151      5
    ## 10     157      5
    ## # ... with 222 more rows
…
assign_cluster <- function(movie_data, active_user){
  
  active_user <- active_user %>% 
    left_join(movie_data %>% select(movieId,cluster), by = 'movieId')
  
  return(active_user)
}

# test the funtion

assign_cluster(movies_tbl, active_user = get_user_info(user_tbl,1) )
```

    ## # A tibble: 232 x 3
    ##    movieId rating cluster
    ##      <int>  <dbl>   <int>
    ##  1       1      4       5
    ##  2       3      4       5
    ##  3       6      4       4
    ##  4      47      5       3
    ##  5      50      5       4
    ##  6      70      3       4
    ##  7     101      5       5
    ##  8     110      4       1
    ##  9     151      5       1
    ## 10     157      5       5
    ## # ... with 222 more rows
…
